Data visualizations and the tidyverse • jhuquantneuro2022
…
read_fwf()
Reads fixed width files

read_log()
Reads log files

A typical call to read_csv() will look as follows.

library(readr)
teams <- read_csv(here("data", "team_standings.csv"))
teams

## # A tibble: 32 × 2
##    Standing Team       
##       <dbl> <chr>      
##  1        1 Spain      
##  2        2 Netherlands
##  3        3 Germany    
##  4        4 Uruguay    
##  5        5 Argentina  
##  6        6 Brazil     
##  7        7 Ghana      
##  8        8 Paraguay   
##  9        9 Japan      
## 10       10 Chile      
## # … with 22 more rows
…
first(x) %>% second %>% third

Example

Take the example that we just did in the last section, but here use
the pipe operator in a single expression.

mutate(chicago, year = as.POSIXlt(date)$year + 1900) %>%    
        group_by(year) %>% 
        summarize(years, pm25 = mean(pm25, na.rm = TRUE), 
          o3 = max(o3tmean2, na.rm = TRUE), 
          no2 = median(no2tmean2, na.rm = TRUE))

## # A tibble: 131,860 × 12
## # Groups:   year [19]
##     year city   tmpd dewpoint date        pm25 pm10tme…¹ o3tme…² no2tm…³ pm25d…⁴
##    <dbl> <chr> <dbl>    <dbl> <date>     <dbl>     <dbl>   <dbl>   <dbl>   <dbl>
##  1  2005 chic     35     30.1 2005-12-31  16.2      23.5    2.53    13.2   -1.23
##  2  2005 chic     36     31   2005-12-30  16.2      19.2    3.03    22.8   -1.17
##  3  2005 chic     35     29.4 2005-12-29  16.2      23.5    6.79    20.0   -8.78
##  4  2005 chic     37     34.5 2005-12-28  16.2      27.5    3.26    19.3    1.52
##  5  2005 chic     40     33.6 2005-12-27  16.2      27      4.47    23.5    7.33
##  6  2005 chic     35     29.6 2005-12-26  16.2       8.5   14.0     16.8   -7.83
##  7  2005 chic     35     32.1 2005-12-25  16.2       8     14.4     13.8   -9.53
##  8  2005 chic     37     35.2 2005-12-24  16.2      25.2    1.77    32.0   14.5 
##  9  2005 chic     41     32.6 2005-12-23  16.2      34.5    6.91    29.1   16.7 
## 10  2005 chic     22     23.3 2005-12-22  16.2      42.5    5.39    33.7   20.4 
## # … with 131,850 more rows, 2 more variables: o3 <dbl>, no2 <dbl>, and
## #   abbreviated variable names ¹​pm10tmean2, ²​o3tmean2, ³​no2tmean2, ⁴​pm25detrend
…
