Problem Set 2 • jhuquantneuro2022
…
  # save the file to RDS objects
  saveRDS(spotify_songs, file= here("data","spotify_songs.RDS"))
}

Here we read in the .RDS dataset locally from our
computing environment:

spotify_songs <- readRDS(here("data","spotify_songs.RDS"))
as_tibble(spotify_songs)

## # A tibble: 32,833 × 23
##    track_id      track…¹ track…² track…³ track…⁴ track…⁵ track…⁶ playl…⁷ playl…⁸
##    <chr>         <chr>   <chr>     <dbl> <chr>   <chr>   <chr>   <chr>   <chr>  
##  1 6f807x0ima9a… I Don'… Ed She…      66 2oCs0D… I Don'… 2019-0… Pop Re… 37i9dQ…
##  2 0r7CVbZTWZgb… Memori… Maroon…      67 63rPSO… Memori… 2019-1… Pop Re… 37i9dQ…
##  3 1z1Hg7Vb0AhH… All th… Zara L…      70 1HoSmj… All th… 2019-0… Pop Re… 37i9dQ…
##  4 75FpbthrwQmz… Call Y… The Ch…      60 1nqYsO… Call Y… 2019-0… Pop Re… 37i9dQ…
##  5 1e8PAfcKUYoK… Someon… Lewis …      69 7m7vv9… Someon… 2019-0… Pop Re… 37i9dQ…
##  6 7fvUMiyapMsR… Beauti… Ed She…      67 2yiy9c… Beauti… 2019-0… Pop Re… 37i9dQ…
##  7 2OAylPUDDfwR… Never … Katy P…      62 7INHYS… Never … 2019-0… Pop Re… 37i9dQ…
##  8 6b1RNvAcJjQH… Post M… Sam Fe…      69 6703SR… Post M… 2019-0… Pop Re… 37i9dQ…
##  9 7bF6tCO3gFb8… Tough … Avicii       68 7CvAfG… Tough … 2019-0… Pop Re… 37i9dQ…
## 10 1IXGILkPm0tO… If I C… Shawn …      67 4Qxzbf… If I C… 2019-0… Pop Re… 37i9dQ…
## # … with 32,823 more rows, 14 more variables: playlist_genre <chr>,
## #   playlist_subgenre <chr>, danceability <dbl>, energy <dbl>, key <dbl>,
## #   loudness <dbl>, mode <dbl>, speechiness <dbl>, acousticness <dbl>,
## #   instrumentalness <dbl>, liveness <dbl>, valence <dbl>, tempo <dbl>,
## #   duration_ms <dbl>, and abbreviated variable names ¹​track_name,
## #   ²​track_artist, ³​track_popularity, ⁴​track_album_id, ⁵​track_album_name,
## #   ⁶​track_album_release_date, ⁷​playlist_name, ⁸​playlist_id
…
## # A tibble: 3 × 1
##        x
##    <dbl>
## 1 -0.630
## 2  0.465
## 3  1.67

## Create a new column that indicates whether the value of 'x' is positive or negative
dat %>%
        mutate(is_positive = case_when(
                x >= 0 ~ "Yes",
                x < 0 ~ "No"
        ))

## # A tibble: 100 × 2
##         x is_positive
##     <dbl> <chr>      
##  1 -0.630 No         
##  2  0.465 Yes        
##  3  1.67  Yes        
##  4 -1.04  No         
##  5 -0.170 No         
##  6  1.97  Yes        
##  7 -1.55  No         
##  8 -0.276 No         
##  9  1.51  Yes        
## 10 -2.15  No         
## # … with 90 more rows
…
